EESchema Schematic File Version 4
EELAYER 30 0
EELAYER END
$Descr A4 11693 8268
encoding utf-8
Sheet 1 1
Title ""
Date ""
Rev ""
Comp ""
Comment1 ""
Comment2 ""
Comment3 ""
Comment4 ""
$EndDescr
Wire Wire Line
	7400 4300 7100 4300
Text Label 7400 4300 0    10   ~ 0
GND
Wire Wire Line
	4100 5400 4100 5300
Text Label 4100 5400 0    10   ~ 0
GND
Wire Wire Line
	5400 3300 5600 3300
Text Label 5500 3300 0    70   ~ 0
GND
Wire Wire Line
	7300 3100 6400 3100
Text Label 6400 3100 0    70   ~ 0
GND
Wire Wire Line
	7200 4900 7400 4900
Text Label 7200 4900 0    10   ~ 0
VCC
Wire Wire Line
	3000 4800 3400 4800
Text Label 3000 4800 0    10   ~ 0
VCC
Wire Wire Line
	7300 3200 6400 3200
Text Label 6400 3200 0    70   ~ 0
VCC
Wire Wire Line
	5400 3500 5600 3500
Text Label 5500 3500 0    70   ~ 0
VCC
Wire Wire Line
	4800 3700 4800 4100
Wire Wire Line
	4800 4100 4400 4100
Wire Wire Line
	4400 4100 4400 4800
Wire Wire Line
	4400 4800 4400 4900
Wire Wire Line
	4400 4900 4100 4900
Wire Wire Line
	3700 4800 4400 4800
Connection ~ 4400 4800
Wire Wire Line
	3900 4300 3400 4300
Text Label 3400 4300 0    70   ~ 0
SDA/MOSI
Wire Wire Line
	7300 3400 6400 3400
Text Label 6400 3400 0    70   ~ 0
SDA/MOSI
Wire Wire Line
	7300 3300 6400 3300
Text Label 6400 3300 0    70   ~ 0
SCL/SCK
Wire Wire Line
	5400 4300 5900 4300
Text Label 5500 4300 0    70   ~ 0
SCL/SCK
Wire Wire Line
	5400 4200 5900 4200
Text Label 5500 4200 0    70   ~ 0
D/C
Wire Wire Line
	7300 3600 6400 3600
Text Label 6400 3600 0    70   ~ 0
D/C
Wire Wire Line
	5400 4000 5900 4000
Text Label 5500 4000 0    70   ~ 0
RESET
Wire Wire Line
	7300 3500 6400 3500
Text Label 6400 3500 0    70   ~ 0
RESET
Wire Wire Line
	5900 4900 5900 4500
Wire Wire Line
	5900 4500 7400 4500
Wire Wire Line
	5900 5500 5900 5600
Wire Wire Line
	5900 5600 6500 5600
Wire Wire Line
	6500 5600 6500 4700
Wire Wire Line
	6500 4700 7400 4700
$Comp
L LightspeedDetector-eagle-import:ABK-PRO-MINI U$1
U 1 1 BABD3B23
P 4800 3700
F 0 "U$1" H 4800 3700 50  0001 C CNN
F 1 "ABK-PRO-MINI" H 4800 3700 50  0001 C CNN
F 2 "LightspeedDetector:ABK-PRO-MINI" H 4800 3700 50  0001 C CNN
F 3 "" H 4800 3700 50  0001 C CNN
	1    4800 3700
	1    0    0    -1  
$EndComp
$Comp
L LightspeedDetector-eagle-import:DIY-MODULES_BATTERY-CHARGER-LI-PROT USB-CHARGE1
U 1 1 ED2B4513
P 8000 4600
F 0 "USB-CHARGE1" H 7500 5100 59  0000 L BNN
F 1 "DIY-MODULES_BATTERY-CHARGER-LI-PROT" H 7500 5100 59  0001 L BNN
F 2 "LightspeedDetector:DIY-MODULES_BATTERY-CHARGER-LI-PROT" H 8000 4600 50  0001 C CNN
F 3 "" H 8000 4600 50  0001 C CNN
	1    8000 4600
	-1   0    0    1   
$EndComp
$Comp
L LightspeedDetector-eagle-import:GND #GND01
U 1 1 DB8695AC
P 7000 4300
F 0 "#GND01" H 7000 4300 50  0001 C CNN
F 1 "GND" H 6900 4200 59  0000 L BNN
F 2 "" H 7000 4300 50  0001 C CNN
F 3 "" H 7000 4300 50  0001 C CNN
	1    7000 4300
	0    1    1    0   
$EndComp
$Comp
L LightspeedDetector-eagle-import:VCC #SUPPLY02
U 1 1 33EFDB7C
P 7100 4900
F 0 "#SUPPLY02" H 7100 4900 50  0001 C CNN
F 1 "VCC" H 7025 5025 59  0000 L BNN
F 2 "" H 7100 4900 50  0001 C CNN
F 3 "" H 7100 4900 50  0001 C CNN
	1    7100 4900
	0    -1   -1   0   
$EndComp
$Comp
L LightspeedDetector-eagle-import:BPX65 D1
U 1 1 8D141E84
P 3500 4800
F 0 "D1" V 3640 4630 59  0000 L BNN
F 1 "BPX65" V 3725 4630 59  0001 L BNN
F 2 "LightspeedDetector:BPX65" H 3500 4800 50  0001 C CNN
F 3 "" H 3500 4800 50  0001 C CNN
	1    3500 4800
	0    -1   -1   0   
$EndComp
$Comp
L LightspeedDetector-eagle-import:GND #GND04
U 1 1 D896219B
P 4100 5500
F 0 "#GND04" H 4100 5500 50  0001 C CNN
F 1 "GND" H 4000 5400 59  0000 L BNN
F 2 "" H 4100 5500 50  0001 C CNN
F 3 "" H 4100 5500 50  0001 C CNN
	1    4100 5500
	1    0    0    -1  
$EndComp
$Comp
L LightspeedDetector-eagle-import:R-EU_0204_7 R1
U 1 1 B9BAFB95
P 4100 5100
F 0 "R1" H 3950 5159 59  0000 L BNN
F 1 "10k" H 3950 4970 59  0000 L BNN
F 2 "LightspeedDetector:0204_7" H 4100 5100 50  0001 C CNN
F 3 "" H 4100 5100 50  0001 C CNN
	1    4100 5100
	0    -1   -1   0   
$EndComp
$Comp
L LightspeedDetector-eagle-import:VCC #SUPPLY04
U 1 1 6DF68C43
P 2900 4800
F 0 "#SUPPLY04" H 2900 4800 50  0001 C CNN
F 1 "VCC" H 2825 4925 59  0000 L BNN
F 2 "" H 2900 4800 50  0001 C CNN
F 3 "" H 2900 4800 50  0001 C CNN
	1    2900 4800
	0    -1   -1   0   
$EndComp
$Comp
L LightspeedDetector-eagle-import:KEYSTONE_1042KEYSTONE_1042_0_0 UNK18650
U 1 1 1C6D938E
P 6100 5400
F 0 "UNK18650" H 6500 5340 85  0000 L TNN
F 1 "KEYSTONE_1042KEYSTONE_1042_0_0" H 6100 5400 50  0001 C CNN
F 2 "LightspeedDetector:KEYSTONE_1042_0" H 6100 5400 50  0001 C CNN
F 3 "" H 6100 5400 50  0001 C CNN
	1    6100 5400
	-1   0    0    1   
$EndComp
$EndSCHEMATC
